…
``` r
pols_month
```

    ## # A tibble: 822 x 9
    ##     year month gov_gop sen_gop rep_gop gov_dem sen_dem rep_dem president
    ##    <int> <chr>   <dbl>   <dbl>   <dbl>   <dbl>   <dbl>   <dbl> <chr>    
    ##  1  1947 Apr        23      51     253      23      45     198 dem      
    ##  2  1947 Aug        23      51     253      23      45     198 dem      
    ##  3  1947 Dec        24      51     253      23      45     198 dem      
    ##  4  1947 Feb        23      51     253      23      45     198 dem      
    ##  5  1947 Jan        23      51     253      23      45     198 dem      
    ##  6  1947 Jul        23      51     253      23      45     198 dem      
    ##  7  1947 Jun        23      51     253      23      45     198 dem      
    ##  8  1947 Mar        23      51     253      23      45     198 dem      
    ##  9  1947 May        23      51     253      23      45     198 dem      
    ## 10  1947 Nov        24      51     253      23      45     198 dem      
    ## # … with 812 more rows
…
    ## Parsed with column specification:
    ## cols(
    ##   date = col_character(),
    ##   close = col_double()
    ## )

``` r
snp
```

    ## # A tibble: 787 x 3
    ##     year month close
    ##    <int> <chr> <dbl>
    ##  1  2015 Jan   2080.
    ##  2  2015 Jan   2063.
    ##  3  2015 Jan   2107.
    ##  4  2015 Jan   2086.
    ##  5  2015 Feb   2068.
    ##  6  2015 Feb   2104.
    ##  7  2015 Feb   1995.
    ##  8  2014 Jan   2059.
    ##  9  2014 Mar   2068.
    ## 10  2014 Jan   2018.
    ## # … with 777 more rows
…
``` r
unemployment
```

    ## # A tibble: 816 x 2
    ##     year month
    ##    <dbl> <chr>
    ##  1  1948 jan  
    ##  2  1948 feb  
    ##  3  1948 mar  
    ##  4  1948 apr  
    ##  5  1948 may  
    ##  6  1948 jun  
    ##  7  1948 jul  
    ##  8  1948 aug  
    ##  9  1948 sep  
    ## 10  1948 oct  
    ## # … with 806 more rows
        mutate(month = as.numeric(month), month = factor(month.name[month])) %>%
    mutate(month = month.name(month)) %>%

month = month.abb(month), mutate (month = as.numeric(month)) %&gt;% \#NAs introduced by coersion, trying to put full month mutate (month =as.factor(month.name\["month"\]) %&gt;%

Merge the three datasets:

``` r
# merge snp into pols
merge_1 = 
  left_join(pols_month, snp, by = c("year", "month"))
merge_1
```

    ## # A tibble: 1,391 x 10
    ##     year month gov_gop sen_gop rep_gop gov_dem sen_dem rep_dem president
    ##    <int> <chr>   <dbl>   <dbl>   <dbl>   <dbl>   <dbl>   <dbl> <chr>    
    ##  1  1947 Apr        23      51     253      23      45     198 dem      
    ##  2  1947 Aug        23      51     253      23      45     198 dem      
    ##  3  1947 Dec        24      51     253      23      45     198 dem      
    ##  4  1947 Feb        23      51     253      23      45     198 dem      
    ##  5  1947 Jan        23      51     253      23      45     198 dem      
    ##  6  1947 Jul        23      51     253      23      45     198 dem      
    ##  7  1947 Jun        23      51     253      23      45     198 dem      
    ##  8  1947 Mar        23      51     253      23      45     198 dem      
    ##  9  1947 May        23      51     253      23      45     198 dem      
    ## 10  1947 Nov        24      51     253      23      45     198 dem      
    ## # … with 1,381 more rows, and 1 more variable: close <dbl>

``` r
# merge unemployment into merge_1
full_merge = 
  left_join(merge_1, unemployment, c("year", "month"))
full_merge
```

    ## # A tibble: 1,391 x 10
    ##     year month gov_gop sen_gop rep_gop gov_dem sen_dem rep_dem president
    ##    <dbl> <chr>   <dbl>   <dbl>   <dbl>   <dbl>   <dbl>   <dbl> <chr>    
    ##  1  1947 Apr        23      51     253      23      45     198 dem      
    ##  2  1947 Aug        23      51     253      23      45     198 dem      
    ##  3  1947 Dec        24      51     253      23      45     198 dem      
    ##  4  1947 Feb        23      51     253      23      45     198 dem      
    ##  5  1947 Jan        23      51     253      23      45     198 dem      
    ##  6  1947 Jul        23      51     253      23      45     198 dem      
    ##  7  1947 Jun        23      51     253      23      45     198 dem      
    ##  8  1947 Mar        23      51     253      23      45     198 dem      
    ##  9  1947 May        23      51     253      23      45     198 dem      
    ## 10  1947 Nov        24      51     253      23      45     198 dem      
    ## # … with 1,381 more rows, and 1 more variable: close <dbl>
…
